SUNDAY


WASHINGTON        5.5             Indianapolis

ATLANTA                  6                 Carolina

LA Chargers             8                 BUFFALO

Houston                    2                 TENNESSEE

PITTSBURGH            4.5             Kansas City

NY JETS                      3                 Miami

Philadelphia             3                 TAMPA BAY

NEW ORLEANS        10               Cleveland

LA RAMS                   13.5           Arizona

SAN FRANCISCO     6                 Detroit

New England           0     JACKSONVILLE

DENVER                    6                 Oakland

DALLAS                     3                 NY Giants



MONDAY

CHICAGO                  3.5             Seattle
