SUNDAY

NEW ENGLAND       7                 Miami

INDIANAPOLIS        1                 Houston

ATLANTA                  4                 Cincinnati

GREEN BAY               9.5             Buffalo

DALLAS                     3                 Detroit

JACKSONVILLE        7.5             NY Jets

CHICAGO                  3                 Tampa Bay

Philadelphia             3.5             TENNESSEE

Seattle                       3                 ARIZONA

OAKLAND                 2.5             Cleveland

LA CHARGERS          10.5           San Francisco

New Orleans            3.5             NY GIANTS

PITTSBURGH            3                 Baltimore



MONDAY

Kansas City               4.5             DENVER
