<?xml version="1.0" encoding="utf-8"?>
<!DOCTYPE svg PUBLIC "-//W3C//DTD SVG 1.1//EN" "http://www.w3.org/Graphics/SVG/1.1/DTD/svg11.dtd">
<svg version="1.1" xmlns="http://www.w3.org/2000/svg" xmlns:xlink="http://www.w3.org/1999/xlink" x="0px" y="0px" viewBox="0 0 1000 1000" enable-background="new 0 0 1000 1000" xml:space="preserve">
<g><g  fill="#beaed4" transform="translate(0.000000,512.000000) scale(0.100000,-0.100000)"><path d="M4630.3,5013.3c-1251.4-128.4-2257.6-592.2-3093.1-1427.7C385.4,2431.9-112.9,818.2,184.2-793.5c134.2-724.4,452.3-1439.2,908.4-2048.7c184-243.4,586.4-657.3,835.6-858.6c668.8-540.4,1483.3-896.9,2357.2-1033c385.2-59.4,1052.1-59.4,1437.3,0c881.6,138,1699.9,498.3,2376.4,1048.3c231.9,187.8,640.1,609.4,810.7,837.5C9431-2152.2,9749.1-1376.1,9875.6-485c32.6,226.1,32.6,981.2,0,1207.4c-161,1134.5-634.4,2098.5-1408.6,2868.9c-758.9,755.1-1709.5,1228.4-2782.7,1387.5C5500.3,5005.6,4787.4,5028.6,4630.3,5013.3z M4940.7,1621.2c187.8-51.7,343-218.5,421.6-458c47.9-141.8,61.3-1749.7,17.2-1964.3c-76.7-364.1-272.1-567.3-590.3-611.3c-335.4-46-640.1,93.9-758.9,350.7C3925-841.4,3921.2-801.2,3923.1,128.3c0,925.6,5.7,987,105.4,1182.4C4179.9,1609.7,4542.1,1732.4,4940.7,1621.2z M3681.6,1506.2c0-111.1-55.6-314.3-414-1514l-415.9-1387.5h-245.3c-136.1,0-247.2,3.8-247.2,9.6c0,5.8,185.9,590.3,412,1299.3c226.1,709.1,412,1295.5,412,1303.2c0,7.7-197.4,13.4-440.8,13.4h-440.8v201.2v201.2h689.9h689.9V1506.2z M6431.7,1596.3c180.2-80.5,239.6-230,239.6-605.6c0-299-28.7-417.8-126.5-527c-92-101.6-205.1-141.8-354.5-128.4c-159.1,13.4-247.2,74.7-318.1,218.5c-51.7,109.2-53.7,118.8-53.7,427.4c0,300.9,1.9,322,49.8,423.5c51.7,109.2,128.4,180.1,224.2,208.9C6186.4,1642.3,6351.2,1632.7,6431.7,1596.3z M7303.7,1596.3c0-9.6-138-536.6-306.6-1170.9C6828.4-209,6690.5-732.2,6690.5-736s-57.5-7.7-126.5-7.7c-111.2,0-124.6,3.8-115,34.5c5.7,17.3,145.6,542.4,310.4,1163.3c164.8,622.8,302.8,1136.4,308.6,1146C7079.5,1619.3,7303.7,1617.4,7303.7,1596.3z M7757.9,471.4c40.2-30.7,93.9-99.7,120.7-153.3c40.2-82.4,47.9-124.6,53.7-345c9.6-299-15.3-433.1-97.7-557.7c-82.4-120.7-178.2-168.6-341.1-166.7c-178.3,0-281.7,63.2-356.5,212.7c-49.8,103.5-53.7,130.3-59.4,392.9c-7.7,335.4,17.2,454.2,124.6,571.1c84.3,93.9,145.6,115,335.4,109.2C7667.8,530.8,7690.8,525,7757.9,471.4z"/><path d="M4513.4,1270.5c-113.1-69-113.1-69-113.1-1151.8c0-839.4,3.8-994.6,28.7-1042.5c93.9-182.1,366-189.7,469.5-11.5c36.4,65.2,38.3,95.8,38.3,1044.5c0,925.6-1.9,983.1-36.4,1061.7c-21.1,46-61.3,93.9-90.1,109.2C4733.8,1318.4,4584.3,1314.6,4513.4,1270.5z"/><path d="M6180.7,1402.7c-74.7-28.7-93.9-122.6-93.9-431.2c0-233.8,7.7-299,34.5-348.8c53.7-101.6,174.4-109.2,237.6-13.4c38.3,57.5,59.4,425.4,34.5,613.3C6374.2,1383.6,6295.7,1450.7,6180.7,1402.7z"/><path d="M7411,293.1c-49.8-55.6-69-159.1-69-404.4c0-323.9,36.4-421.6,159.1-421.6c122.7,0,149.5,57.5,161,343.1c11.5,243.4-13.4,427.4-65.2,484.9C7554.8,341,7453.2,339.1,7411,293.1z"/></g></g>
</svg>
